…
    ## ── Conflicts ────────────────────────────────────────── tidyverse_conflicts() ──
    ## x dplyr::filter() masks stats::filter()
    ## x dplyr::lag()    masks stats::lag()

``` r
library(ggplot2)
```

``` r
filter(flights, !dep_delay>0)
```

    ## # A tibble: 200,089 × 19
    ##     year month   day dep_time sched_dep_time dep_delay arr_time sched_arr_time
    ##    <int> <int> <int>    <int>          <int>     <dbl>    <int>          <int>
    ##  1  2013     1     1      544            545        -1     1004           1022
    ##  2  2013     1     1      554            600        -6      812            837
    ##  3  2013     1     1      554            558        -4      740            728
    ##  4  2013     1     1      555            600        -5      913            854
    ##  5  2013     1     1      557            600        -3      709            723
    ##  6  2013     1     1      557            600        -3      838            846
    ##  7  2013     1     1      558            600        -2      753            745
    ##  8  2013     1     1      558            600        -2      849            851
    ##  9  2013     1     1      558            600        -2      853            856
    ## 10  2013     1     1      558            600        -2      924            917
    ## # … with 200,079 more rows, and 11 more variables: arr_delay <dbl>,
    ## #   carrier <chr>, flight <int>, tailnum <chr>, origin <chr>, dest <chr>,
    ## #   air_time <dbl>, distance <dbl>, hour <dbl>, minute <dbl>, time_hour <dttm>
…
